…
## OGR data source with driver: ESRI Shapefile 
## Source: "/Users/turn652/Documents/IM3/WM development/GRanD/GRanD download/GRanD_dams_v1_1.shp", layer: "GRanD_dams_v1_1"
## with 6862 features
## It has 56 fields
## Integer64 fields read as strings:  DIS_AVG_LS

grand_data

## # A tibble: 6,862 x 3
##    GRAND_ID DAM_NAME       COUNTRY      
##       <int> <chr>          <chr>        
##  1        1 Terror Lake    United States
##  2        2 Mayo           Canada       
##  3        3 Blue Lake      United States
##  4        4 Green Lake     United States
##  5        5 Long Lake Dam  United States
##  6        6 W.A.C. Bennett Canada       
##  7        7 Peace Canyon   Canada       
##  8        8 Swan Lake      United States
##  9        9 Anyox          Canada       
## 10       10 Upper Silvis   United States
## # … with 6,852 more rows
…
          cnrm_A2[[dam]] %>% .$Power_MW %>%
            tibble(gen = ., time = time(.)) %>% 
            mutate(gen = as.double(gen) * 732) %>%
            # ^^ 732 is approx hrs per month to convert MW to MWh
            mutate(year = as.integer(substr(time, 1, 4)),
                   month = factor(rep(month.abb, 100), levels = month.abb),
                   index = dam) %>% 
            select(index, year, month, gen_MWh = gen)
        }
      ) %>% mutate(country = !!country) %>% 
      group_by(country, year, month) %>% 
      summarise(gen_MWh = sum(gen_MWh)) %>% ungroup()
  })

## # A tibble: 128,400 x 4
##    country      year month gen_MWh
##    <chr>       <int> <fct>   <dbl>
##  1 Afghanistan  2001 Jan    67015.
##  2 Afghanistan  2001 Feb    81655.
##  3 Afghanistan  2001 Mar    81655.
##  4 Afghanistan  2001 Apr    81655.
##  5 Afghanistan  2001 May    81655.
##  6 Afghanistan  2001 Jun    60081.
##  7 Afghanistan  2001 Jul    52977.
##  8 Afghanistan  2001 Aug    29872.
##  9 Afghanistan  2001 Sep    17176.
## 10 Afghanistan  2001 Oct    15815.
## # … with 128,390 more rows
…
