…
The get_amax function in winfapReader returns the time series of annual maxima. The function takes station ids as the argument. You can pump multiple station ids into the function, but I’m gonna set up the vector of station ids and then use purrr::map_dfr to get results a single table (rather than a list), which will be easier to work with.

stations[["Station"]] %>% 
  map_dfr(get_amax) %>% 
  as_tibble() ->
  get_amax_output

get_amax_output

## # A tibble: 138 x 6
##    Station WaterYear Date        Flow Stage Rejected
##      <dbl>     <dbl> <date>     <dbl> <dbl> <lgl>   
##  1   84011      1963 1963-11-24  56.3  2.3  FALSE   
##  2   84011      1964 1964-12-11  66.4  2.42 FALSE   
##  3   84011      1965 1965-10-31  94.2  2.71 FALSE   
##  4   84011      1966 1966-10-05  65.5  2.41 FALSE   
##  5   84011      1967 1968-03-26  77.4  2.54 FALSE   
##  6   84011      1968 1968-10-09  56.3  2.3  FALSE   
##  7   84011      1969 1970-02-01  73.6  2.5  FALSE   
##  8   84011      1970 1970-11-03  64.7  2.4  FALSE   
##  9   84011      1971 1971-10-10  71.8  2.48 FALSE   
## 10   84011      1972 1972-12-11  64.7  2.4  FALSE   
## # … with 128 more rows
…
get_amax_output %>% 
  left_join(stations) %>% 
  mutate(month = month(Date),
         season = case_when(
           month %in% c(12, 1, 2) ~ "winter",
           month %in% 3:5 ~ "spring",
           month %in% 6:8 ~ "summer",
           month %in% 9:11 ~ "autumn"
         )) %>% 
  select(name, WaterYear, Flow, season) -> amax_table

amax_table

## # A tibble: 138 x 4
##    name              WaterYear  Flow season
##    <chr>                 <dbl> <dbl> <chr> 
##  1 Gryfe at Craigend      1963  56.3 autumn
##  2 Gryfe at Craigend      1964  66.4 winter
##  3 Gryfe at Craigend      1965  94.2 autumn
##  4 Gryfe at Craigend      1966  65.5 autumn
##  5 Gryfe at Craigend      1967  77.4 spring
##  6 Gryfe at Craigend      1968  56.3 autumn
##  7 Gryfe at Craigend      1969  73.6 winter
##  8 Gryfe at Craigend      1970  64.7 autumn
##  9 Gryfe at Craigend      1971  71.8 autumn
## 10 Gryfe at Craigend      1972  64.7 winter
## # … with 128 more rows
…
